%YAML 1.1
%TAG !u! tag:unity3d.com,2011:
--- !u!74 &7400000
AnimationClip:
  m_ObjectHideFlags: 0
  m_CorrespondingSourceObject: {fileID: 0}
  m_PrefabInstance: {fileID: 0}
  m_PrefabAsset: {fileID: 0}
  m_Name: FuegosArtificiales5
  serializedVersion: 6
  m_Legacy: 0
  m_Compressed: 0
  m_UseHighQualityCurve: 1
  m_RotationCurves: []
  m_CompressedRotationCurves: []
  m_EulerCurves: []
  m_PositionCurves: []
  m_ScaleCurves: []
  m_FloatCurves: []
  m_PPtrCurves:
  - curve:
    - time: 0.6666667
      value: {fileID: 21300000, guid: 8bfadaefedf87ab4f9bd69197675ada5, type: 3}
    - time: 0.75
      value: {fileID: 21300000, guid: 98db504981a45504c88915a0d19e0d26, type: 3}
    - time: 0.8333333
      value: {fileID: 21300000, guid: 2dcb8630c20e76043a65c1f3b049b56f, type: 3}
    - time: 0.9166667
      value: {fileID: 21300000, guid: 622025be1a076134791f831407c5cc1c, type: 3}
    - time: 1
      value: {fileID: 21300000, guid: 7adba7063002b4142920a59583ac12b1, type: 3}
    - time: 1.0833334
      value: {fileID: 21300000, guid: ec8adbe676ee1ff499b7d194a62e57e6, type: 3}
    - time: 1.1666666
      value: {fileID: 21300000, guid: ef2a4b995eb347049a04e53f08171dba, type: 3}
    - time: 1.25
      value: {fileID: 21300000, guid: 5d3fdccb8b1f53b468a7f059d54a7acc, type: 3}
    - time: 1.3333334
      value: {fileID: 21300000, guid: a528d61a10f152b4b949366c39e11104, type: 3}
    - time: 1.4166666
      value: {fileID: 21300000, guid: 0868f11056d444645befbf0f4412b757, type: 3}
    - time: 1.5
      value: {fileID: 21300000, guid: 6a35447e51d4103428913a80cf91c192, type: 3}
    - time: 1.5833334
      value: {fileID: 21300000, guid: 7fc9939f1481a0f4795863edcfdb3808, type: 3}
    - time: 1.6666666
      value: {fileID: 21300000, guid: 68914b8478a228746a25059368e3d001, type: 3}
    - time: 1.75
      value: {fileID: 21300000, guid: b0aa6c5032c5bd14a9f4bb2d7e7cff30, type: 3}
    - time: 1.8333334
      value: {fileID: 21300000, guid: b4bd336b1d9370c46b864effec18d533, type: 3}
    - time: 1.9166666
      value: {fileID: 21300000, guid: 60d9e1e2a1765bf4abc08efdcbd6d1d8, type: 3}
    - time: 2
      value: {fileID: 21300000, guid: 2cf081a8115f65848b068322d8fcedfd, type: 3}
    - time: 2.0833333
      value: {fileID: 21300000, guid: 65b314181e784dd4989013073f9c9090, type: 3}
    - time: 2.1666667
      value: {fileID: 21300000, guid: 551917092385e2540a0a0ff18ff8f211, type: 3}
    - time: 2.25
      value: {fileID: 21300000, guid: 648a4ca0bc1c1dc47afd7d62477e3124, type: 3}
    - time: 2.3333333
      value: {fileID: 21300000, guid: 9b7a849b6c15f40468790826446d39bc, type: 3}
    - time: 2.4166667
      value: {fileID: 21300000, guid: f183f7e4ffca7dd43b8668394bc48c40, type: 3}
    - time: 2.5
      value: {fileID: 21300000, guid: dd6f3c600b9b4fa4daa9595905422a04, type: 3}
    - time: 2.5833333
      value: {fileID: 21300000, guid: ffbac1b3edc1fba44b24ce8c6793303f, type: 3}
    - time: 2.6666667
      value: {fileID: 21300000, guid: c88962c154ce7cc439ae5c7a4f638b1e, type: 3}
    - time: 2.75
      value: {fileID: 21300000, guid: 30e58a813a068af4d9058aa309ed44d7, type: 3}
    - time: 3.0833333
      value: {fileID: 21300000, guid: ec9cad005c8fb4e4685468b80ea13a27, type: 3}
    attribute: m_Sprite
    path: 
    classID: 212
    script: {fileID: 0}
  m_SampleRate: 12
  m_WrapMode: 0
  m_Bounds:
    m_Center: {x: 0, y: 0, z: 0}
    m_Extent: {x: 0, y: 0, z: 0}
  m_ClipBindingConstant:
    genericBindings:
    - serializedVersion: 2
      path: 0
      attribute: 0
      script: {fileID: 0}
      typeID: 212
      customType: 23
      isPPtrCurve: 1
    pptrCurveMapping:
    - {fileID: 21300000, guid: 8bfadaefedf87ab4f9bd69197675ada5, type: 3}
    - {fileID: 21300000, guid: 98db504981a45504c88915a0d19e0d26, type: 3}
    - {fileID: 21300000, guid: 2dcb8630c20e76043a65c1f3b049b56f, type: 3}
    - {fileID: 21300000, guid: 622025be1a076134791f831407c5cc1c, type: 3}
    - {fileID: 21300000, guid: 7adba7063002b4142920a59583ac12b1, type: 3}
    - {fileID: 21300000, guid: ec8adbe676ee1ff499b7d194a62e57e6, type: 3}
    - {fileID: 21300000, guid: ef2a4b995eb347049a04e53f08171dba, type: 3}
    - {fileID: 21300000, guid: 5d3fdccb8b1f53b468a7f059d54a7acc, type: 3}
    - {fileID: 21300000, guid: a528d61a10f152b4b949366c39e11104, type: 3}
    - {fileID: 21300000, guid: 0868f11056d444645befbf0f4412b757, type: 3}
    - {fileID: 21300000, guid: 6a35447e51d4103428913a80cf91c192, type: 3}
    - {fileID: 21300000, guid: 7fc9939f1481a0f4795863edcfdb3808, type: 3}
    - {fileID: 21300000, guid: 68914b8478a228746a25059368e3d001, type: 3}
    - {fileID: 21300000, guid: b0aa6c5032c5bd14a9f4bb2d7e7cff30, type: 3}
    - {fileID: 21300000, guid: b4bd336b1d9370c46b864effec18d533, type: 3}
    - {fileID: 21300000, guid: 60d9e1e2a1765bf4abc08efdcbd6d1d8, type: 3}
    - {fileID: 21300000, guid: 2cf081a8115f65848b068322d8fcedfd, type: 3}
    - {fileID: 21300000, guid: 65b314181e784dd4989013073f9c9090, type: 3}
    - {fileID: 21300000, guid: 551917092385e2540a0a0ff18ff8f211, type: 3}
    - {fileID: 21300000, guid: 648a4ca0bc1c1dc47afd7d62477e3124, type: 3}
    - {fileID: 21300000, guid: 9b7a849b6c15f40468790826446d39bc, type: 3}
    - {fileID: 21300000, guid: f183f7e4ffca7dd43b8668394bc48c40, type: 3}
    - {fileID: 21300000, guid: dd6f3c600b9b4fa4daa9595905422a04, type: 3}
    - {fileID: 21300000, guid: ffbac1b3edc1fba44b24ce8c6793303f, type: 3}
    - {fileID: 21300000, guid: c88962c154ce7cc439ae5c7a4f638b1e, type: 3}
    - {fileID: 21300000, guid: 30e58a813a068af4d9058aa309ed44d7, type: 3}
    - {fileID: 21300000, guid: ec9cad005c8fb4e4685468b80ea13a27, type: 3}
  m_AnimationClipSettings:
    serializedVersion: 2
    m_AdditiveReferencePoseClip: {fileID: 0}
    m_AdditiveReferencePoseTime: 0
    m_StartTime: 0
    m_StopTime: 3.1666665
    m_OrientationOffsetY: 0
    m_Level: 0
    m_CycleOffset: 0
    m_HasAdditiveReferencePose: 0
    m_LoopTime: 1
    m_LoopBlend: 0
    m_LoopBlendOrientation: 0
    m_LoopBlendPositionY: 0
    m_LoopBlendPositionXZ: 0
    m_KeepOriginalOrientation: 0
    m_KeepOriginalPositionY: 1
    m_KeepOriginalPositionXZ: 0
    m_HeightFromFeet: 0
    m_Mirror: 0
  m_EditorCurves: []
  m_EulerEditorCurves: []
  m_HasGenericRootTransform: 0
  m_HasMotionFloatCurves: 0
  m_Events: []
